%YAML 1.1
%TAG !u! tag:unity3d.com,2011:
--- !u!74 &7400000
AnimationClip:
  m_ObjectHideFlags: 0
  m_PrefabParentObject: {fileID: 0}
  m_PrefabInternal: {fileID: 0}
  m_Name: ennemi
  serializedVersion: 6
  m_Legacy: 0
  m_Compressed: 0
  m_UseHighQualityCurve: 1
  m_RotationCurves:
  - curve:
      serializedVersion: 2
      m_Curve:
      - serializedVersion: 2
        time: 0
        value: {x: 0, y: 1, z: 0, w: -0.00000004371139}
        inSlope: {x: 0, y: 0, z: 0, w: 0}
        outSlope: {x: 0, y: 0, z: 0, w: 0}
        tangentMode: 0
      - serializedVersion: 2
        time: 1
        value: {x: 0, y: 1, z: 0, w: -0.00000004371139}
        inSlope: {x: 0, y: 0, z: 0, w: 0}
        outSlope: {x: 0, y: 0, z: 0, w: 0.0047683716}
        tangentMode: 0
      - serializedVersion: 2
        time: 1.5
        value: {x: 0, y: 0.7071069, z: 0, w: 0.7071067}
        inSlope: {x: 0, y: -0.0030994415, z: 0, w: 0.0032186508}
        outSlope: {x: 0, y: 0, z: 0, w: 0}
        tangentMode: 0
      - serializedVersion: 2
        time: 2.5
        value: {x: 0, y: 0.7071069, z: 0, w: 0.7071067}
        inSlope: {x: 0, y: 0, z: 0, w: 0}
        outSlope: {x: 0, y: -0.00667572, z: 0, w: 0.006556511}
        tangentMode: 0
      - serializedVersion: 2
        time: 3
        value: {x: -0, y: 0.7071069, z: -0, w: -0.7071067}
        inSlope: {x: -0, y: 0.006198883, z: -0, w: 0.006198883}
        outSlope: {x: -0, y: -0, z: -0, w: -0}
        tangentMode: 0
      - serializedVersion: 2
        time: 4
        value: {x: -0, y: 0.7071069, z: -0, w: -0.7071067}
        inSlope: {x: -0, y: -0, z: -0, w: -0}
        outSlope: {x: -0, y: -0.00333786, z: -0, w: -0.0032186508}
        tangentMode: 0
      - serializedVersion: 2
        time: 4.5
        value: {x: -0, y: -0, z: -0, w: -1}
        inSlope: {x: -0, y: -0.0046605323, z: -0, w: -0}
        outSlope: {x: -0, y: -0, z: -0, w: -0}
        tangentMode: 0
      - serializedVersion: 2
        time: 5.5
        value: {x: -0, y: -0, z: -0, w: -1}
        inSlope: {x: -0, y: -0, z: -0, w: -0}
        outSlope: {x: -0, y: -0.00942611, z: -0, w: -0}
        tangentMode: 0
      - serializedVersion: 2
        time: 6
        value: {x: 0, y: 1, z: 0, w: -0.00000004371139}
        inSlope: {x: 0, y: 0, z: 0, w: -0.01001358}
        outSlope: {x: 0, y: 0, z: 0, w: 0}
        tangentMode: 0
      m_PreInfinity: 2
      m_PostInfinity: 2
      m_RotationOrder: 4
    path: GameObject
  m_CompressedRotationCurves: []
  m_EulerCurves: []
  m_PositionCurves:
  - curve:
      serializedVersion: 2
      m_Curve:
      - serializedVersion: 2
        time: 0
        value: {x: -1.57, y: 0.5, z: -10.82}
        inSlope: {x: 0, y: 0, z: 0}
        outSlope: {x: 0, y: 0, z: 0}
        tangentMode: 0
      - serializedVersion: 2
        time: 1
        value: {x: -1.7107408, y: 0.5, z: -15.294073}
        inSlope: {x: -0.12666662, y: 0, z: -4.0533333}
        outSlope: {x: -0.12666662, y: 0, z: -4.0533333}
        tangentMode: 0
      - serializedVersion: 2
        time: 1.5
        value: {x: -1.76, y: 0.5, z: -16.9}
        inSlope: {x: 0, y: 0, z: -0.17778012}
        outSlope: {x: 0, y: 0, z: -0.17778012}
        tangentMode: 0
      - serializedVersion: 2
        time: 2.5
        value: {x: 5.9066668, y: 0.5, z: -16.966667}
        inSlope: {x: 6.9, y: 0, z: -0.06666692}
        outSlope: {x: 6.9, y: 0, z: -0.06666692}
        tangentMode: 0
      - serializedVersion: 2
        time: 3
        value: {x: 8.59, y: 0.5, z: -17}
        inSlope: {x: 0, y: 0, z: -0.088887535}
        outSlope: {x: 0, y: 0, z: -0.088887535}
        tangentMode: 0
      - serializedVersion: 2
        time: 4
        value: {x: 1.1159239, y: 0.5, z: -17.22963}
        inSlope: {x: -6.7400002, y: 0, z: -0.18765259}
        outSlope: {x: -6.7400002, y: 0, z: -0.18765259}
        tangentMode: 0
      - serializedVersion: 2
        time: 4.5
        value: {x: -1.52, y: 0.5, z: -17.3}
        inSlope: {x: -0.12839481, y: 0, z: 0}
        outSlope: {x: -0.12839481, y: 0, z: 0}
        tangentMode: 0
      - serializedVersion: 2
        time: 5.5
        value: {x: -1.5681481, y: 0.5, z: -12.499998}
        inSlope: {x: -0.0049384423, y: 0, z: 4.3199997}
        outSlope: {x: -0.0049384423, y: 0, z: 4.3199997}
        tangentMode: 0
      - serializedVersion: 2
        time: 6
        value: {x: -1.57, y: 0.5, z: -10.82}
        inSlope: {x: 0, y: 0, z: 0}
        outSlope: {x: 0, y: 0, z: 0}
        tangentMode: 0
      m_PreInfinity: 2
      m_PostInfinity: 2
      m_RotationOrder: 4
    path: 
  m_ScaleCurves: []
  m_FloatCurves:
  - curve:
      serializedVersion: 2
      m_Curve:
      - serializedVersion: 2
        time: 0
        value: 0
        inSlope: Infinity
        outSlope: Infinity
        tangentMode: 103
      - serializedVersion: 2
        time: 1
        value: 0
        inSlope: Infinity
        outSlope: Infinity
        tangentMode: 103
      - serializedVersion: 2
        time: 1.5
        value: 0
        inSlope: Infinity
        outSlope: Infinity
        tangentMode: 103
      - serializedVersion: 2
        time: 2.5
        value: 0
        inSlope: Infinity
        outSlope: Infinity
        tangentMode: 103
      - serializedVersion: 2
        time: 3
        value: 1
        inSlope: Infinity
        outSlope: Infinity
        tangentMode: 103
      - serializedVersion: 2
        time: 4
        value: 1
        inSlope: Infinity
        outSlope: Infinity
        tangentMode: 103
      - serializedVersion: 2
        time: 4.5
        value: 1
        inSlope: Infinity
        outSlope: Infinity
        tangentMode: 103
      - serializedVersion: 2
        time: 5.5
        value: 1
        inSlope: Infinity
        outSlope: Infinity
        tangentMode: 103
      - serializedVersion: 2
        time: 6
        value: 0
        inSlope: Infinity
        outSlope: Infinity
        tangentMode: 103
      m_PreInfinity: 2
      m_PostInfinity: 2
      m_RotationOrder: 4
    attribute: m_FlipX
    path: sprite
    classID: 212
    script: {fileID: 0}
  m_PPtrCurves:
  - curve:
    - time: 0
      value: {fileID: 21300002, guid: 8fde86e0d83c2f84186c43eaa9bdab1b, type: 3}
    - time: 1
      value: {fileID: 21300002, guid: 8fde86e0d83c2f84186c43eaa9bdab1b, type: 3}
    - time: 1.5
      value: {fileID: 21300000, guid: 8fde86e0d83c2f84186c43eaa9bdab1b, type: 3}
    - time: 2.5
      value: {fileID: 21300000, guid: 8fde86e0d83c2f84186c43eaa9bdab1b, type: 3}
    - time: 3
      value: {fileID: 21300006, guid: 8fde86e0d83c2f84186c43eaa9bdab1b, type: 3}
    - time: 4
      value: {fileID: 21300006, guid: 8fde86e0d83c2f84186c43eaa9bdab1b, type: 3}
    - time: 4.5
      value: {fileID: 21300004, guid: 8fde86e0d83c2f84186c43eaa9bdab1b, type: 3}
    - time: 5.5
      value: {fileID: 21300004, guid: 8fde86e0d83c2f84186c43eaa9bdab1b, type: 3}
    - time: 6
      value: {fileID: 21300002, guid: 8fde86e0d83c2f84186c43eaa9bdab1b, type: 3}
    attribute: m_Sprite
    path: head
    classID: 212
    script: {fileID: 0}
  m_SampleRate: 10
  m_WrapMode: 0
  m_Bounds:
    m_Center: {x: 0, y: 0, z: 0}
    m_Extent: {x: 0, y: 0, z: 0}
  m_ClipBindingConstant:
    genericBindings:
    - serializedVersion: 2
      path: 0
      attribute: 1
      script: {fileID: 0}
      typeID: 4
      customType: 0
      isPPtrCurve: 0
    - serializedVersion: 2
      path: 1482111001
      attribute: 2
      script: {fileID: 0}
      typeID: 4
      customType: 0
      isPPtrCurve: 0
    - serializedVersion: 2
      path: 891129758
      attribute: 555744692
      script: {fileID: 0}
      typeID: 212
      customType: 0
      isPPtrCurve: 0
    - serializedVersion: 2
      path: 2817783452
      attribute: 0
      script: {fileID: 0}
      typeID: 212
      customType: 23
      isPPtrCurve: 1
    pptrCurveMapping:
    - {fileID: 21300002, guid: 8fde86e0d83c2f84186c43eaa9bdab1b, type: 3}
    - {fileID: 21300002, guid: 8fde86e0d83c2f84186c43eaa9bdab1b, type: 3}
    - {fileID: 21300000, guid: 8fde86e0d83c2f84186c43eaa9bdab1b, type: 3}
    - {fileID: 21300000, guid: 8fde86e0d83c2f84186c43eaa9bdab1b, type: 3}
    - {fileID: 21300006, guid: 8fde86e0d83c2f84186c43eaa9bdab1b, type: 3}
    - {fileID: 21300006, guid: 8fde86e0d83c2f84186c43eaa9bdab1b, type: 3}
    - {fileID: 21300004, guid: 8fde86e0d83c2f84186c43eaa9bdab1b, type: 3}
    - {fileID: 21300004, guid: 8fde86e0d83c2f84186c43eaa9bdab1b, type: 3}
    - {fileID: 21300002, guid: 8fde86e0d83c2f84186c43eaa9bdab1b, type: 3}
  m_AnimationClipSettings:
    serializedVersion: 2
    m_AdditiveReferencePoseClip: {fileID: 0}
    m_AdditiveReferencePoseTime: 0
    m_StartTime: 0
    m_StopTime: 6.1
    m_OrientationOffsetY: 0
    m_Level: 0
    m_CycleOffset: 0
    m_HasAdditiveReferencePose: 0
    m_LoopTime: 1
    m_LoopBlend: 0
    m_LoopBlendOrientation: 0
    m_LoopBlendPositionY: 0
    m_LoopBlendPositionXZ: 0
    m_KeepOriginalOrientation: 0
    m_KeepOriginalPositionY: 1
    m_KeepOriginalPositionXZ: 0
    m_HeightFromFeet: 0
    m_Mirror: 0
  m_EditorCurves:
  - curve:
      serializedVersion: 2
      m_Curve:
      - serializedVersion: 2
        time: 0
        value: -1.57
        inSlope: 0
        outSlope: 0
        tangentMode: 136
      - serializedVersion: 2
        time: 1
        value: -1.7107408
        inSlope: -0.12666662
        outSlope: -0.12666662
        tangentMode: 136
      - serializedVersion: 2
        time: 1.5
        value: -1.76
        inSlope: 0
        outSlope: 0
        tangentMode: 136
      - serializedVersion: 2
        time: 2.5
        value: 5.9066668
        inSlope: 6.9
        outSlope: 6.9
        tangentMode: 136
      - serializedVersion: 2
        time: 3
        value: 8.59
        inSlope: 0
        outSlope: 0
        tangentMode: 136
      - serializedVersion: 2
        time: 4
        value: 1.1159239
        inSlope: -6.7400002
        outSlope: -6.7400002
        tangentMode: 136
      - serializedVersion: 2
        time: 4.5
        value: -1.52
        inSlope: -0.12839481
        outSlope: -0.12839481
        tangentMode: 136
      - serializedVersion: 2
        time: 5.5
        value: -1.5681481
        inSlope: -0.0049384423
        outSlope: -0.0049384423
        tangentMode: 136
      - serializedVersion: 2
        time: 6
        value: -1.57
        inSlope: 0
        outSlope: 0
        tangentMode: 136
      m_PreInfinity: 2
      m_PostInfinity: 2
      m_RotationOrder: 4
    attribute: m_LocalPosition.x
    path: 
    classID: 4
    script: {fileID: 0}
  - curve:
      serializedVersion: 2
      m_Curve:
      - serializedVersion: 2
        time: 0
        value: 0.5
        inSlope: 0
        outSlope: 0
        tangentMode: 136
      - serializedVersion: 2
        time: 1
        value: 0.5
        inSlope: 0
        outSlope: 0
        tangentMode: 136
      - serializedVersion: 2
        time: 1.5
        value: 0.5
        inSlope: 0
        outSlope: 0
        tangentMode: 136
      - serializedVersion: 2
        time: 2.5
        value: 0.5
        inSlope: 0
        outSlope: 0
        tangentMode: 136
      - serializedVersion: 2
        time: 3
        value: 0.5
        inSlope: 0
        outSlope: 0
        tangentMode: 136
      - serializedVersion: 2
        time: 4
        value: 0.5
        inSlope: 0
        outSlope: 0
        tangentMode: 136
      - serializedVersion: 2
        time: 4.5
        value: 0.5
        inSlope: 0
        outSlope: 0
        tangentMode: 136
      - serializedVersion: 2
        time: 5.5
        value: 0.5
        inSlope: 0
        outSlope: 0
        tangentMode: 136
      - serializedVersion: 2
        time: 6
        value: 0.5
        inSlope: 0
        outSlope: 0
        tangentMode: 136
      m_PreInfinity: 2
      m_PostInfinity: 2
      m_RotationOrder: 4
    attribute: m_LocalPosition.y
    path: 
    classID: 4
    script: {fileID: 0}
  - curve:
      serializedVersion: 2
      m_Curve:
      - serializedVersion: 2
        time: 0
        value: -10.82
        inSlope: 0
        outSlope: 0
        tangentMode: 136
      - serializedVersion: 2
        time: 1
        value: -15.294073
        inSlope: -4.0533333
        outSlope: -4.0533333
        tangentMode: 136
      - serializedVersion: 2
        time: 1.5
        value: -16.9
        inSlope: -0.17778012
        outSlope: -0.17778012
        tangentMode: 136
      - serializedVersion: 2
        time: 2.5
        value: -16.966667
        inSlope: -0.06666692
        outSlope: -0.06666692
        tangentMode: 136
      - serializedVersion: 2
        time: 3
        value: -17
        inSlope: -0.088887535
        outSlope: -0.088887535
        tangentMode: 136
      - serializedVersion: 2
        time: 4
        value: -17.22963
        inSlope: -0.18765259
        outSlope: -0.18765259
        tangentMode: 136
      - serializedVersion: 2
        time: 4.5
        value: -17.3
        inSlope: 0
        outSlope: 0
        tangentMode: 136
      - serializedVersion: 2
        time: 5.5
        value: -12.499998
        inSlope: 4.3199997
        outSlope: 4.3199997
        tangentMode: 136
      - serializedVersion: 2
        time: 6
        value: -10.82
        inSlope: 0
        outSlope: 0
        tangentMode: 136
      m_PreInfinity: 2
      m_PostInfinity: 2
      m_RotationOrder: 4
    attribute: m_LocalPosition.z
    path: 
    classID: 4
    script: {fileID: 0}
  - curve:
      serializedVersion: 2
      m_Curve:
      - serializedVersion: 2
        time: 0
        value: 0
        inSlope: Infinity
        outSlope: Infinity
        tangentMode: 103
      - serializedVersion: 2
        time: 1
        value: 0
        inSlope: Infinity
        outSlope: Infinity
        tangentMode: 103
      - serializedVersion: 2
        time: 1.5
        value: 0
        inSlope: Infinity
        outSlope: Infinity
        tangentMode: 103
      - serializedVersion: 2
        time: 2.5
        value: 0
        inSlope: Infinity
        outSlope: Infinity
        tangentMode: 103
      - serializedVersion: 2
        time: 3
        value: 1
        inSlope: Infinity
        outSlope: Infinity
        tangentMode: 103
      - serializedVersion: 2
        time: 4
        value: 1
        inSlope: Infinity
        outSlope: Infinity
        tangentMode: 103
      - serializedVersion: 2
        time: 4.5
        value: 1
        inSlope: Infinity
        outSlope: Infinity
        tangentMode: 103
      - serializedVersion: 2
        time: 5.5
        value: 1
        inSlope: Infinity
        outSlope: Infinity
        tangentMode: 103
      - serializedVersion: 2
        time: 6
        value: 0
        inSlope: Infinity
        outSlope: Infinity
        tangentMode: 103
      m_PreInfinity: 2
      m_PostInfinity: 2
      m_RotationOrder: 4
    attribute: m_FlipX
    path: sprite
    classID: 212
    script: {fileID: 0}
  - curve:
      serializedVersion: 2
      m_Curve:
      - serializedVersion: 2
        time: 0
        value: 0
        inSlope: 0
        outSlope: 0
        tangentMode: 0
      - serializedVersion: 2
        time: 1
        value: 0
        inSlope: 0
        outSlope: 0
        tangentMode: 0
      - serializedVersion: 2
        time: 1.5
        value: 0
        inSlope: 0
        outSlope: 0
        tangentMode: 0
      - serializedVersion: 2
        time: 2.5
        value: 0
        inSlope: 0
        outSlope: 0
        tangentMode: 0
      - serializedVersion: 2
        time: 3
        value: -0
        inSlope: -0
        outSlope: -0
        tangentMode: 0
      - serializedVersion: 2
        time: 4
        value: -0
        inSlope: -0
        outSlope: -0
        tangentMode: 0
      - serializedVersion: 2
        time: 4.5
        value: -0
        inSlope: -0
        outSlope: -0
        tangentMode: 0
      - serializedVersion: 2
        time: 5.5
        value: -0
        inSlope: -0
        outSlope: -0
        tangentMode: 0
      - serializedVersion: 2
        time: 6
        value: 0
        inSlope: 0
        outSlope: 0
        tangentMode: 0
      m_PreInfinity: 2
      m_PostInfinity: 2
      m_RotationOrder: 4
    attribute: m_LocalRotation.x
    path: GameObject
    classID: 4
    script: {fileID: 0}
  - curve:
      serializedVersion: 2
      m_Curve:
      - serializedVersion: 2
        time: 0
        value: 1
        inSlope: 0
        outSlope: 0
        tangentMode: 0
      - serializedVersion: 2
        time: 1
        value: 1
        inSlope: 0
        outSlope: 0
        tangentMode: 0
      - serializedVersion: 2
        time: 1.5
        value: 0.7071069
        inSlope: -0.0030994415
        outSlope: 0
        tangentMode: 0
      - serializedVersion: 2
        time: 2.5
        value: 0.7071069
        inSlope: 0
        outSlope: -0.00667572
        tangentMode: 0
      - serializedVersion: 2
        time: 3
        value: 0.7071069
        inSlope: 0.006198883
        outSlope: -0
        tangentMode: 0
      - serializedVersion: 2
        time: 4
        value: 0.7071069
        inSlope: -0
        outSlope: -0.00333786
        tangentMode: 0
      - serializedVersion: 2
        time: 4.5
        value: -0
        inSlope: -0.0046605323
        outSlope: -0
        tangentMode: 0
      - serializedVersion: 2
        time: 5.5
        value: -0
        inSlope: -0
        outSlope: -0.00942611
        tangentMode: 0
      - serializedVersion: 2
        time: 6
        value: 1
        inSlope: 0
        outSlope: 0
        tangentMode: 0
      m_PreInfinity: 2
      m_PostInfinity: 2
      m_RotationOrder: 4
    attribute: m_LocalRotation.y
    path: GameObject
    classID: 4
    script: {fileID: 0}
  - curve:
      serializedVersion: 2
      m_Curve:
      - serializedVersion: 2
        time: 0
        value: 0
        inSlope: 0
        outSlope: 0
        tangentMode: 0
      - serializedVersion: 2
        time: 1
        value: 0
        inSlope: 0
        outSlope: 0
        tangentMode: 0
      - serializedVersion: 2
        time: 1.5
        value: 0
        inSlope: 0
        outSlope: 0
        tangentMode: 0
      - serializedVersion: 2
        time: 2.5
        value: 0
        inSlope: 0
        outSlope: 0
        tangentMode: 0
      - serializedVersion: 2
        time: 3
        value: -0
        inSlope: -0
        outSlope: -0
        tangentMode: 0
      - serializedVersion: 2
        time: 4
        value: -0
        inSlope: -0
        outSlope: -0
        tangentMode: 0
      - serializedVersion: 2
        time: 4.5
        value: -0
        inSlope: -0
        outSlope: -0
        tangentMode: 0
      - serializedVersion: 2
        time: 5.5
        value: -0
        inSlope: -0
        outSlope: -0
        tangentMode: 0
      - serializedVersion: 2
        time: 6
        value: 0
        inSlope: 0
        outSlope: 0
        tangentMode: 0
      m_PreInfinity: 2
      m_PostInfinity: 2
      m_RotationOrder: 4
    attribute: m_LocalRotation.z
    path: GameObject
    classID: 4
    script: {fileID: 0}
  - curve:
      serializedVersion: 2
      m_Curve:
      - serializedVersion: 2
        time: 0
        value: -0.00000004371139
        inSlope: 0
        outSlope: 0
        tangentMode: 0
      - serializedVersion: 2
        time: 1
        value: -0.00000004371139
        inSlope: 0
        outSlope: 0.0047683716
        tangentMode: 0
      - serializedVersion: 2
        time: 1.5
        value: 0.7071067
        inSlope: 0.0032186508
        outSlope: 0
        tangentMode: 0
      - serializedVersion: 2
        time: 2.5
        value: 0.7071067
        inSlope: 0
        outSlope: 0.006556511
        tangentMode: 0
      - serializedVersion: 2
        time: 3
        value: -0.7071067
        inSlope: 0.006198883
        outSlope: -0
        tangentMode: 0
      - serializedVersion: 2
        time: 4
        value: -0.7071067
        inSlope: -0
        outSlope: -0.0032186508
        tangentMode: 0
      - serializedVersion: 2
        time: 4.5
        value: -1
        inSlope: -0
        outSlope: -0
        tangentMode: 0
      - serializedVersion: 2
        time: 5.5
        value: -1
        inSlope: -0
        outSlope: -0
        tangentMode: 0
      - serializedVersion: 2
        time: 6
        value: -0.00000004371139
        inSlope: -0.01001358
        outSlope: 0
        tangentMode: 0
      m_PreInfinity: 2
      m_PostInfinity: 2
      m_RotationOrder: 4
    attribute: m_LocalRotation.w
    path: GameObject
    classID: 4
    script: {fileID: 0}
  m_EulerEditorCurves:
  - curve:
      serializedVersion: 2
      m_Curve:
      - serializedVersion: 2
        time: 0
        value: 0
        inSlope: 0
        outSlope: 0
        tangentMode: 136
      - serializedVersion: 2
        time: 1
        value: 0
        inSlope: 0
        outSlope: 0
        tangentMode: 136
      - serializedVersion: 2
        time: 1.5
        value: 0
        inSlope: 0
        outSlope: 0
        tangentMode: 136
      - serializedVersion: 2
        time: 2.5
        value: 0
        inSlope: 0
        outSlope: 0
        tangentMode: 136
      - serializedVersion: 2
        time: 3
        value: 0
        inSlope: 0
        outSlope: 0
        tangentMode: 136
      - serializedVersion: 2
        time: 4
        value: 0
        inSlope: 0
        outSlope: 0
        tangentMode: 136
      - serializedVersion: 2
        time: 4.5
        value: 0
        inSlope: 0
        outSlope: 0
        tangentMode: 136
      - serializedVersion: 2
        time: 5.5
        value: 0
        inSlope: 0
        outSlope: 0
        tangentMode: 136
      - serializedVersion: 2
        time: 6
        value: 0
        inSlope: 0
        outSlope: 0
        tangentMode: 136
      m_PreInfinity: 2
      m_PostInfinity: 2
      m_RotationOrder: 4
    attribute: localEulerAngles.x
    path: GameObject
    classID: 4
    script: {fileID: 0}
  - curve:
      serializedVersion: 2
      m_Curve:
      - serializedVersion: 2
        time: 0
        value: 179.99998
        inSlope: 0
        outSlope: 0
        tangentMode: 136
      - serializedVersion: 2
        time: 1
        value: 179.99998
        inSlope: 0
        outSlope: 0
        tangentMode: 136
      - serializedVersion: 2
        time: 1.5
        value: 90.00001
        inSlope: 0
        outSlope: 0
        tangentMode: 136
      - serializedVersion: 2
        time: 2.5
        value: 90.00001
        inSlope: 0
        outSlope: 0
        tangentMode: 136
      - serializedVersion: 2
        time: 3
        value: -90.00001
        inSlope: 0
        outSlope: 0
        tangentMode: 136
      - serializedVersion: 2
        time: 4
        value: -90.00001
        inSlope: 0
        outSlope: 0
        tangentMode: 136
      - serializedVersion: 2
        time: 4.5
        value: 0
        inSlope: 0
        outSlope: 0
        tangentMode: 136
      - serializedVersion: 2
        time: 5.5
        value: 0
        inSlope: 0
        outSlope: 0
        tangentMode: 136
      - serializedVersion: 2
        time: 6
        value: 179.99998
        inSlope: 0
        outSlope: 0
        tangentMode: 136
      m_PreInfinity: 2
      m_PostInfinity: 2
      m_RotationOrder: 4
    attribute: localEulerAngles.y
    path: GameObject
    classID: 4
    script: {fileID: 0}
  - curve:
      serializedVersion: 2
      m_Curve:
      - serializedVersion: 2
        time: 0
        value: 0
        inSlope: 0
        outSlope: 0
        tangentMode: 136
      - serializedVersion: 2
        time: 1
        value: 0
        inSlope: 0
        outSlope: 0
        tangentMode: 136
      - serializedVersion: 2
        time: 1.5
        value: 0
        inSlope: 0
        outSlope: 0
        tangentMode: 136
      - serializedVersion: 2
        time: 2.5
        value: 0
        inSlope: 0
        outSlope: 0
        tangentMode: 136
      - serializedVersion: 2
        time: 3
        value: 0
        inSlope: 0
        outSlope: 0
        tangentMode: 136
      - serializedVersion: 2
        time: 4
        value: 0
        inSlope: 0
        outSlope: 0
        tangentMode: 136
      - serializedVersion: 2
        time: 4.5
        value: 0
        inSlope: 0
        outSlope: 0
        tangentMode: 136
      - serializedVersion: 2
        time: 5.5
        value: 0
        inSlope: 0
        outSlope: 0
        tangentMode: 136
      - serializedVersion: 2
        time: 6
        value: 0
        inSlope: 0
        outSlope: 0
        tangentMode: 136
      m_PreInfinity: 2
      m_PostInfinity: 2
      m_RotationOrder: 4
    attribute: localEulerAngles.z
    path: GameObject
    classID: 4
    script: {fileID: 0}
  m_HasGenericRootTransform: 1
  m_HasMotionFloatCurves: 0
  m_GenerateMotionCurves: 0
  m_Events: []
